2 Example | semnova: An R package for latent repeated measures ANOVA
…
Figure 2.1: Means and standard errors for the the investigated items across the four experimental conditions.

2.3 Preparing the Data

The dataset contains a lot of variables. In the next step, we select only the relevant variables.

d_wide <- d_raw %>%
  select(ID, S1PP:S2NN)

d_wide

## # A tibble: 26 x 9
##       ID   S1PP   S1NP   S1PN    S1NN   S2PP  S2NP   S2PN    S2NN
##    <dbl>  <dbl>  <dbl>  <dbl>   <dbl>  <dbl> <dbl>  <dbl>   <dbl>
##  1     1  0.913 0.177  -0.927 -0.927   0.913 0.177 -0.927 -0.927 
##  2     2  0.752 1.56    0.128 -1.81    0.565 0.939 -0.246 -2.12  
##  3     3  0.238 0.238  -1.32   0.0275  0.660 0.238 -1.49  -0.689 
##  4     4 -1.54  1.47    1.09   1.60   -0.552 1.09   0.655  1.52  
##  5     5 -0.269 0.120  -0.269  0.120  -0.269 0.120 -0.269  0.509 
##  6     6  0.463 0.0686  0.108  0.858   0.463 0.858  0.463  0.0686
##  7     7  1.10  0.707  -0.701 -1.49    0.663 0.179 -0.657 -0.657 
##  8     8  0.200 0.777   0.392  0.585  -0.665 0.873 -0.665  1.07  
##  9     9  1.88  0.356   0.297  0.297   1.47  1.17  -0.287 -0.521 
## 10    10  0.600 1.44    0.676  0.216   0.753 0.753  0.830 -0.168 
## # … with 16 more rows
