4 Traditional ANOVA | semnova: An R package for latent repeated measures ANOVA
…
d_long <- d_wide %>%
  gather(condition, value, -ID) %>%
  mutate(item = substr(condition, 1, 2),
         condition = substr(condition, 3, 4))

d_mean_wide <- d_long %>%
  group_by(ID, condition) %>%
  summarise(value = mean(value)) %>%
  spread(condition, value)

d_mean_wide

## # A tibble: 26 x 5
## # Groups:   ID [26]
##       ID      NN    NP       PN     PP
##    <dbl>   <dbl> <dbl>    <dbl>  <dbl>
##  1     1 -0.927  0.177 -0.927    0.913
##  2     2 -1.96   1.25  -0.0588   0.659
##  3     3 -0.331  0.238 -1.40     0.449
##  4     4  1.56   1.28   0.870   -1.05 
##  5     5  0.314  0.120 -0.269   -0.269
##  6     6  0.463  0.463  0.286    0.463
##  7     7 -1.07   0.443 -0.679    0.883
##  8     8  0.825  0.825 -0.136   -0.232
##  9     9 -0.112  0.765  0.00506  1.67 
## 10    10  0.0236 1.10   0.753    0.676
## # … with 16 more rows
…
